\BOOKMARK [1][-]{section.1}{Introduction}{}% 1
\BOOKMARK [1][-]{section.2}{First Section}{}% 2
\BOOKMARK [2][-]{subsection.2.1}{Equations}{section.2}% 3
\BOOKMARK [2][-]{subsection.2.2}{Code listing}{section.2}% 4
\BOOKMARK [2][-]{subsection.2.3}{Figures}{section.2}% 5
\BOOKMARK [2][-]{subsection.2.4}{Tables}{section.2}% 6
\BOOKMARK [2][-]{subsection.2.5}{Nomenclature}{section.2}% 7
\BOOKMARK [2][-]{subsection.2.6}{Referencing}{section.2}% 8
\BOOKMARK [1][-]{section.3}{Conclusion}{}% 9
\BOOKMARK [1][-]{section*.6}{References}{}% 10
\BOOKMARK [1][-]{section*.7}{Nomenclature}{}% 11
