\relax 
\providecommand\hyper@newdestlabel[2]{}
\providecommand{\transparent@use}[1]{}
\abx@aux@refcontext{nty/global//global/global}
\providecommand\HyperFirstAtBeginDocument{\AtBeginDocument}
\HyperFirstAtBeginDocument{\ifx\hyper@anchor\@undefined
\global\let\oldcontentsline\contentsline
\gdef\contentsline#1#2#3#4{\oldcontentsline{#1}{#2}{#3}}
\global\let\oldnewlabel\newlabel
\gdef\newlabel#1#2{\newlabelxx{#1}#2}
\gdef\newlabelxx#1#2#3#4#5#6{\oldnewlabel{#1}{{#2}{#3}}}
\AtEndDocument{\ifx\hyper@anchor\@undefined
\let\contentsline\oldcontentsline
\let\newlabel\oldnewlabel
\fi}
\fi}
\global\let\hyper@last\relax 
\gdef\HyperFirstAtBeginDocument#1{#1}
\providecommand\HyField@AuxAddToFields[1]{}
\providecommand\HyField@AuxAddToCoFields[2]{}
\@writefile{toc}{\boolfalse {citerequest}\boolfalse {citetracker}\boolfalse {pagetracker}\boolfalse {backtracker}\relax }
\@writefile{lof}{\boolfalse {citerequest}\boolfalse {citetracker}\boolfalse {pagetracker}\boolfalse {backtracker}\relax }
\@writefile{lot}{\boolfalse {citerequest}\boolfalse {citetracker}\boolfalse {pagetracker}\boolfalse {backtracker}\relax }
\@writefile{toc}{\contentsline {section}{\numberline {1}Introduction}{1}{section.1}\protected@file@percent }
\@writefile{toc}{\contentsline {section}{\numberline {2}First Section}{1}{section.2}\protected@file@percent }
\@writefile{toc}{\contentsline {subsection}{\numberline {2.1}Equations}{1}{subsection.2.1}\protected@file@percent }
\newlabel{EQ}{{1}{1}{Equations}{equation.2.1}{}}
\@writefile{toc}{\contentsline {subsection}{\numberline {2.2}Code listing}{1}{subsection.2.2}\protected@file@percent }
\newlabel{listing:matlabfile}{{1}{1}{MATLABFILE.m}{lstlisting.1}{}}
\@writefile{lol}{\contentsline {lstlisting}{\numberline {1}MATLABFILE.m}{1}{lstlisting.1}\protected@file@percent }
\newlabel{listing:pythoncode}{{2}{1}{Inline Python code}{lstlisting.2}{}}
\@writefile{lol}{\contentsline {lstlisting}{\numberline {2}Inline Python code}{1}{lstlisting.2}\protected@file@percent }
\@writefile{toc}{\contentsline {subsection}{\numberline {2.3}Figures}{2}{subsection.2.3}\protected@file@percent }
\@writefile{toc}{\contentsline {subsection}{\numberline {2.4}Tables}{2}{subsection.2.4}\protected@file@percent }
\@writefile{lot}{\contentsline {table}{\numberline {1}{\ignorespaces Parameters to monitor\relax }}{2}{table.caption.5}\protected@file@percent }
\newlabel{table:Parameters to monitor}{{1}{2}{Parameters to monitor\relax }{table.caption.5}{}}
\abx@aux@cite{NormanS.Nise2011}
\abx@aux@segm{0}{0}{NormanS.Nise2011}
\@writefile{lof}{\contentsline {figure}{\numberline {1}{\ignorespaces Road Load plot\relax }}{3}{figure.caption.4}\protected@file@percent }
\providecommand*\caption@xref[2]{\@setref\relax\@undefined{#1}}
\newlabel{fig:roadload}{{1}{3}{Road Load plot\relax }{figure.caption.4}{}}
\@writefile{toc}{\contentsline {subsection}{\numberline {2.5}Nomenclature}{3}{subsection.2.5}\protected@file@percent }
\@writefile{toc}{\contentsline {subsection}{\numberline {2.6}Referencing}{3}{subsection.2.6}\protected@file@percent }
\@writefile{toc}{\contentsline {section}{\numberline {3}Conclusion}{3}{section.3}\protected@file@percent }
\@writefile{toc}{\contentsline {section}{References}{4}{section*.6}\protected@file@percent }
\abx@aux@refcontextdefaultsdone
\abx@aux@defaultrefcontext{0}{NormanS.Nise2011}{nty/global//global/global}
\@writefile{toc}{\contentsline {section}{\nonumberline Nomenclature}{5}{section*.7}\protected@file@percent }
