\boolfalse {citerequest}\boolfalse {citetracker}\boolfalse {pagetracker}\boolfalse {backtracker}\relax 
\contentsline {section}{\numberline {1}Introduction}{1}{section.1}% 
\contentsline {section}{\numberline {2}First Section}{1}{section.2}% 
\contentsline {subsection}{\numberline {2.1}Equations}{1}{subsection.2.1}% 
\contentsline {subsection}{\numberline {2.2}Code listing}{1}{subsection.2.2}% 
\contentsline {subsection}{\numberline {2.3}Figures}{2}{subsection.2.3}% 
\contentsline {subsection}{\numberline {2.4}Tables}{2}{subsection.2.4}% 
\contentsline {subsection}{\numberline {2.5}Nomenclature}{3}{subsection.2.5}% 
\contentsline {subsection}{\numberline {2.6}Referencing}{3}{subsection.2.6}% 
\contentsline {section}{\numberline {3}Conclusion}{3}{section.3}% 
\contentsline {section}{References}{4}{section*.6}% 
\contentsline {section}{\nonumberline Nomenclature}{5}{section*.7}% 
